<?xml version="1.0" encoding="utf-8"?>
<!-- Generator: Adobe Illustrator 23.0.3, SVG Export Plug-In . SVG Version: 6.00 Build 0)  -->
<svg version="1.1" id="Слой_1" xmlns="http://www.w3.org/2000/svg" xmlns:xlink="http://www.w3.org/1999/xlink" x="0px" y="0px"
	 viewBox="0 0 634.02 265.63" style="enable-background:new 0 0 634.02 265.63;" xml:space="preserve">
<style type="text/css">
	.st0{fill:#ffffff;stroke:#ffffff;stroke-width:4;stroke-miterlimit:10;}
	.st1{fill:#ffffff;stroke:#ffffff;stroke-width:2.9044;stroke-miterlimit:10;}
	.st2{fill:#E42A12;}
</style>
<g>
	<g>
		<polygon class="st0" points="94.16,72.33 83.53,92.29 73.14,72.18 58.09,43.97 46.24,43.97 46.24,118.25 59.14,118.25 
			59.14,72.33 59.74,72.33 69.07,90.04 78.86,107.59 87.74,107.59 99.63,86.58 107.76,71.28 108.51,71.28 108.51,118.25 
			121.42,118.25 121.42,43.97 109.74,43.97 		"/>
		<polygon class="st0" points="187.93,43.97 176.67,76.68 166.17,106.39 165.72,106.39 157.47,76.68 148.46,43.97 134.51,43.97 
			154.61,111.8 160.92,117.05 151.13,145.21 164.99,145.21 201.73,43.97 		"/>
		<path class="st0" d="M217.19,74.73c0,6.5-0.33,11.76-0.98,15.76c-0.65,4-1.65,7.23-3,9.68c-1.35,2.45-3.08,4.38-5.18,5.78
			c-2.1,1.4-4.55,2.75-7.35,4.05l5.25,10.35c3.5-1.4,6.73-3.1,9.7-5.1c2.96-2,5.51-4.65,7.63-7.95c2.13-3.3,3.8-7.5,5.01-12.61
			c1.21-5.1,1.82-11.5,1.82-19.21V55.37h25.81v62.88h12.91V43.97h-51.62V74.73z"/>
		<path class="st0" d="M336.94,79.38c-2.16-2-4.87-3.58-8.13-4.73c-3.26-1.15-7-1.73-11.21-1.73h-19.72V43.97h-12.91v74.43h32.5
			c8.42,0,14.87-2.1,19.33-6.3s6.7-9.75,6.7-16.66c0-3.2-0.55-6.18-1.66-8.93C340.72,83.76,339.09,81.38,336.94,79.38z
			 M327.05,104.07c-2.35,1.95-5.68,2.93-9.98,2.93h-19.36V84.18h19.36c4.8,0,8.25,1.18,10.35,3.53c2.1,2.35,3.15,4.93,3.15,7.73
			C330.58,99.24,329.4,102.12,327.05,104.07z"/>
		<polygon class="st0" points="340.76,55.52 363.72,55.52 363.72,118.4 377.08,118.4 377.08,55.52 400.19,55.52 400.19,43.97 
			340.76,43.97 		"/>
		<polygon class="st0" points="460.72,43.97 435.86,80.58 424.7,97.54 424.1,97.54 424.1,43.97 411.19,43.97 411.19,118.25 
			423.05,118.25 447.66,81.78 458.92,64.52 459.67,64.52 459.67,118.25 472.87,118.25 472.87,43.97 		"/>
	</g>
	<path class="st0" d="M179.27,204.73c2.6,2.3,5.68,4,9.23,5.1c3.55,1.1,6.78,1.65,9.68,1.65c3.2,0,5.88-0.32,8.03-0.98
		c2.15-0.65,3.9-1.5,5.25-2.55c1.35-1.05,2.33-2.25,2.93-3.6s0.9-2.73,0.9-4.13c0-3.5-1.33-6.15-3.98-7.95
		c-2.65-1.8-5.98-2.7-9.98-2.7h-10.21v-10.65h10.5c4,0,7.1-0.97,9.3-2.9c2.2-1.94,3.3-4.34,3.3-7.22c0-3.28-1.45-5.68-4.35-7.22
		c-2.9-1.54-6.2-2.31-9.9-2.31c-2.9,0-5.93,0.43-9.08,1.28c-3.15,0.85-6.03,2.43-8.63,4.73l-7.95-8.89c3.5-3.34,7.6-5.72,12.31-7.14
		c4.7-1.42,9.4-2.13,14.11-2.13c4.3,0,8.08,0.55,11.33,1.65c3.25,1.1,5.95,2.6,8.1,4.5c2.15,1.9,3.78,4.08,4.88,6.53
		c1.1,2.45,1.65,5.08,1.65,7.88c0,1.1-0.1,2.38-0.3,3.83c-0.2,1.45-0.68,2.93-1.43,4.43c-0.75,1.5-1.8,2.93-3.15,4.28
		s-3.18,2.48-5.48,3.38c2.3,0.9,4.2,2.05,5.7,3.45c1.5,1.4,2.68,2.9,3.53,4.5c0.85,1.6,1.43,3.15,1.73,4.65
		c0.3,1.5,0.45,2.8,0.45,3.9c0,3.3-0.6,6.33-1.8,9.08c-1.2,2.75-3,5.15-5.4,7.2c-2.4,2.05-5.4,3.65-9,4.8
		c-3.6,1.15-7.8,1.73-12.61,1.73c-4.8,0-9.58-0.68-14.33-2.03c-4.75-1.35-9.13-3.78-13.13-7.28L179.27,204.73z"/>
	<path class="st0" d="M289.35,215.08c-5.9,3.3-10.73,5.43-14.48,6.38c-3.75,0.95-7.13,1.43-10.13,1.43c-7.2,0-12.96-2-17.26-6
		c-4.3-4-6.45-9.45-6.45-16.36c0-4.1,0.92-7.55,2.78-10.35c1.85-2.8,4.15-5.08,6.9-6.83c2.75-1.75,5.7-3,8.85-3.75
		s5.98-1.13,8.48-1.13h21.76v-5.7c0-5.2-1.45-8.83-4.35-10.88c-2.9-2.05-7.05-3.08-12.46-3.08c-2.6,0-5.78,0.38-9.53,1.13
		c-3.75,0.75-7.53,2.68-11.33,5.78l-6.3-9.75c4.8-3.7,9.65-6.1,14.56-7.2c4.9-1.1,9.45-1.65,13.66-1.65c9.7,0,16.91,2.13,21.61,6.38
		c4.7,4.25,7.05,10.78,7.05,19.58v49.22h-11.38l-1.52-6.9L289.35,215.08z M289.8,189.12h-19.66c-1.6,0-3.33,0.13-5.18,0.38
		c-1.85,0.25-3.58,0.75-5.18,1.5c-1.6,0.75-2.93,1.9-3.98,3.45c-1.05,1.55-1.58,3.58-1.58,6.08c0,3.6,1.22,6.3,3.68,8.1
		c2.45,1.8,5.58,2.7,9.38,2.7c1.9,0,3.88-0.27,5.93-0.83c2.05-0.55,4.05-1.22,6-2.03c1.95-0.8,3.83-1.67,5.63-2.63
		c1.8-0.95,3.45-1.82,4.95-2.63V189.12z"/>
	<path class="st0" d="M459.22,175.92l-8.13,15.31l-11.89,21.01h-8.88l-9.79-17.56l-9.33-17.71h-0.6v45.92h-12.91V148.6h11.86
		l15.05,28.21l10.39,20.11l10.63-19.96l15.58-28.36h11.68v74.28h-12.91v-46.97H459.22z"/>
	<path class="st0" d="M331.2,202.18l11.15-16.96l24.86-36.62h12.16v74.28h-13.21v-53.72h-0.75l-11.25,17.26l-24.61,36.47h-11.86
		V148.6h12.91v53.57H331.2z"/>
	<path class="st1" d="M341.03,131.91c0.06,0.7,0.26,1.43,0.59,2.2c0.33,0.77,0.79,1.48,1.38,2.15c0.59,0.66,1.31,1.21,2.16,1.62
		c0.85,0.42,1.8,0.63,2.85,0.63c1.18,0,2.21-0.21,3.09-0.63c0.88-0.42,1.62-0.96,2.21-1.62c0.59-0.66,1.03-1.38,1.33-2.15
		c0.29-0.77,0.44-1.5,0.44-2.2h6.97c-0.13,1.4-0.43,2.88-0.88,4.45c-0.46,1.57-1.23,3.02-2.31,4.35c-1.08,1.33-2.49,2.45-4.22,3.35
		c-1.74,0.91-3.95,1.36-6.63,1.36c-2.69,0-4.93-0.45-6.73-1.36c-1.8-0.91-3.24-2.03-4.32-3.35c-1.08-1.33-1.87-2.78-2.36-4.35
		c-0.49-1.57-0.74-3.06-0.74-4.45H341.03z"/>
	<path class="st2" d="M496.45,41.48v136.14h0c21.96,0,40.28-15.88,44.08-36.76c0.83-4.57,4.56-8.04,9.21-8.04h0
		c5.88,0,10.17,5.38,9.13,11.17c-5.29,29.66-31.27,52.25-62.43,52.25h0v27.92c50.44,0,91.34-40.89,91.34-91.34
		C587.79,82.37,546.89,41.48,496.45,41.48z"/>
</g>
</svg>
